Avengers ELO Analysis
…
Data Manipulations

Tools

Libraries:

Data Tiding

Separate rows with charater 1,charater 2, into more partial victories (w 1/n winning rate)

Turn values with singular charaters into 1-charater

separate pairs n-charaters in 2 columns

## # A tibble: 409 x 9
##       id winner_n winner_charater loser_n loser_charater movie comment
##    <int>    <dbl> <chr>             <dbl> <chr>          <chr> <chr>  
##  1     1        1 civilian              1 Steve Rogers   Capt~ scena ~
##  2     2        1 Bucky                 1 civilian       Capt~ scena ~
##  3     3        1 Red Skull             1 civilian       Capt~ scena ~
##  4     4        3 Hydra soldier         3 US Army Soldi~ Capt~ scena ~
##  5     5        3 Hydra soldier         1 Abrahm Eskine  Capt~ scena ~
##  6     6        1 US Army Soldie~       1 Hydra soldier  Capt~ scena ~
##  7     7        1 Peggy Carter          1 Hydra soldier  Capt~ scena ~
##  8     8        1 Captain America       1 Hydra soldier  Capt~ scena ~
##  9     9        1 Red Skull             3 nazi soldier   Capt~ scena ~
## 10    10        1 Captain America       5 Hydra soldier  Capt~ scena ~
## # ... with 399 more rows, and 2 more variables: terrain_winner <chr>,
## #   terrain_loser <chr>

Charater list + general statistics

## # A tibble: 81 x 5
##       id charater         n_fights n_win n_lose
##    <int> <chr>               <dbl> <dbl>  <dbl>
##  1    11 Iron Man               57    42     15
##  2    17 Hulk                   56    37     19
##  3    35 Loki                   52    29     23
##  4    31 Thor                   52    37     15
##  5     7 Captain America        40    31      9
##  6    57 Chitauri Soldier       40     8     32
##  7     4 Hydra soldier          37     7     30
##  8    27 Ice Giant              34    10     24
##  9    24 Abominio               26    22      4
## 10     1 civilian               23     4     19
## # ... with 71 more rows

Prepare the dataframe for ELO

Expected Format

## # A tibble: 409 x 9
##       id winner_n winner_charater loser_n loser_charater movie comment
##    <int>    <dbl> <chr>             <dbl> <chr>          <chr> <chr>  
##  1     1        1 civilian              1 Steve Rogers   Capt~ scena ~
##  2     2        1 Bucky                 1 civilian       Capt~ scena ~
##  3     3        1 Red Skull             1 civilian       Capt~ scena ~
##  4     4        3 Hydra soldier         3 US Army Soldi~ Capt~ scena ~
##  5     5        3 Hydra soldier         1 Abrahm Eskine  Capt~ scena ~
##  6     6        1 US Army Soldie~       1 Hydra soldier  Capt~ scena ~
##  7     7        1 Peggy Carter          1 Hydra soldier  Capt~ scena ~
##  8     8        1 Captain America       1 Hydra soldier  Capt~ scena ~
##  9     9        1 Red Skull             3 nazi soldier   Capt~ scena ~
## 10    10        1 Captain America       5 Hydra soldier  Capt~ scena ~
## # ... with 399 more rows, and 2 more variables: terrain_winner <chr>,
## #   terrain_loser <chr>

Actual Dataset Format

## # A tibble: 409 x 9
##       id winner_n winner_charater loser_n loser_charater movie comment
##    <int>    <dbl> <chr>             <dbl> <chr>          <chr> <chr>  
##  1     1        1 civilian              1 Steve Rogers   Capt~ scena ~
##  2     2        1 Bucky                 1 civilian       Capt~ scena ~
##  3     3        1 Red Skull             1 civilian       Capt~ scena ~
##  4     4        3 Hydra soldier         3 US Army Soldi~ Capt~ scena ~
##  5     5        3 Hydra soldier         1 Abrahm Eskine  Capt~ scena ~
##  6     6        1 US Army Soldie~       1 Hydra soldier  Capt~ scena ~
##  7     7        1 Peggy Carter          1 Hydra soldier  Capt~ scena ~
##  8     8        1 Captain America       1 Hydra soldier  Capt~ scena ~
##  9     9        1 Red Skull             3 nazi soldier   Capt~ scena ~
## 10    10        1 Captain America       5 Hydra soldier  Capt~ scena ~
## # ... with 399 more rows, and 2 more variables: terrain_winner <chr>,
## #   terrain_loser <chr>

I decided to apply this algorithm:

Winner goes always in White, Loser goes always in Black => score will be always be a numbers in (0,1]

given n winners and m losers, I will have

m/n lines where White=winner, Black=loser, Score=1

(eventually) one line with White=winner, Black=loser and \[Score=\frac{rest(\frac{m}{n})}{n} * 0.5 + 0.5\]

Dataset in ELO Format

## # A tibble: 828 x 9
## # Groups:   id [374]
##       id count winner     loser     Score movie    comment           White Black
##    <int> <dbl> <chr>      <chr>     <dbl> <chr>    <chr>             <int> <int>
##  1     1     1 civilian   Steve Ro~ 1     Captain~ scena bullo cine~     1    59
##  2     2     1 Bucky      civilian  1     Captain~ scena bullo cine~     2     1
##  3     3     1 Red Skull  civilian  1     Captain~ scena scoperta c~     3     1
##  4     4     1 Hydra sol~ US Army ~ 1     Captain~ scena creazione ~     4     8
##  5     5     1 Hydra sol~ Abrahm E~ 0.667 Captain~ scena creazione ~     4    60
##  6     6     1 US Army S~ Hydra so~ 1     Captain~ scena creazione ~     5     4
##  7     7     1 Peggy Car~ Hydra so~ 1     Captain~ scena creazione ~     6     4
##  8     8     1 Captain A~ Hydra so~ 1     Captain~ scena creazione ~     7     4
##  9     9     1 Red Skull  nazi sol~ 1     Captain~ scena visita uff~     3    61
## 10     9     2 Red Skull  nazi sol~ 1     Captain~ scena visita uff~     3    61
## # ... with 818 more rows
…
## # A tibble: 81 x 3
##       id score charater       
##    <int> <dbl> <chr>          
##  1    11  301. Iron Man       
##  2    31  291. Thor           
##  3    17  247. Hulk           
##  4    24  206. Abominio       
##  5     7  200. Captain America
##  6    30  178. Destroyer      
##  7    48  148. Black Widow    
##  8    51  145. Hawkeye        
##  9    35  139. Loki           
## 10    49  108. War Machine    
## # ... with 71 more rows
…
